<kml xmlns="http://earth.google.com/kml/2.2">
  <Document>
    <name>Polskie NIEgóry</name>
    <description/>
    <Placemark>
      <name>Szklany Zamek</name>
      <description>Wojtek: Coś w stylu schroniska ;)&amp;nbsp;http://szklanyzamek.pl</description>
      <Point>
        <coordinates>18.448833,54.654247,0.000000</coordinates>
      </Point>
      <Style>
        <IconStyle>
          <Icon>
            <href>http://maps.gstatic.com/mapfiles/ms2/micons/rangerstation.png</href>
          </Icon>
        </IconStyle>
      </Style>
    </Placemark>
    <Placemark>
      <name>Grabarka-Klasztor</name>
      <Point>
        <coordinates>23.005833,52.416668,0.000000</coordinates>
      </Point>
      <Style>
        <IconStyle>
          <Icon>
            <href/>
          </Icon>
        </IconStyle>
      </Style>
    </Placemark>
  </Document>
</kml>
