<kml xmlns="http://earth.google.com/kml/2.2">
  <Document>
    <name>Ciekawe miejsca poza Polską</name>
    <description>Miejsca klimatyczne, tudzież fotogeniczne, tudzież polecane z innych względów. To jest swego rodzaju wersja "światowa" mapy "Polskie góry", która jest dostępna tu: http://goo.gl/maps/oRXPU

Udostępniam do edycji znajomym. Jeśli chcesz coś dodać, a mnie nie znasz, to napisz na rygielski@mimuw.edu.pl (lub facebooka).

Zasady: Dodawajcie ile wlezie. Można dopisywać komentarze (możecie podpisać się przed komentarzami, bo fajnie wiedzieć kto napisał), ale raczej nie usuwamy czyichś komentarzy. Można też importować inne swoje mapy google. Do każdego miejsca dodajemy jakiś komentarz, choć skromny, albo zdjęcie.

Dla informatyków: https://bitbucket.org/wrygiel/miejsca-klimatyczne</description>
    <Placemark>
      <name>Petra, Jordan</name>
      <description>&lt;div&gt;Wojtek: No ja bym to chętnie zobaczył... ;&amp;gt;&lt;/div&gt;&lt;div&gt;&lt;br&gt;&amp;nbsp;&lt;/div&gt;&lt;img src="http://i.imgur.com/AL2Gt.png"&gt;</description>
      <Point>
        <coordinates>35.443268,30.327843,0.000000</coordinates>
      </Point>
      <Style>
        <IconStyle>
          <Icon>
            <href>http://maps.gstatic.com/mapfiles/ms2/micons/camera.png</href>
          </Icon>
        </IconStyle>
      </Style>
    </Placemark>
    <Placemark>
      <name>Meteory</name>
      <description>&lt;div&gt;Wojtek: Klasztory meteory. Nie wiem czy współrzędne są dokładne.&lt;/div&gt;&lt;div&gt;&lt;br&gt;&amp;nbsp;&lt;/div&gt;&lt;img src="http://i.imgur.com/MLQS5.png"&gt;</description>
      <Point>
        <coordinates>21.602018,39.788376,0.000000</coordinates>
      </Point>
      <Style>
        <IconStyle>
          <Icon>
            <href>http://maps.gstatic.com/mapfiles/ms2/micons/camera.png</href>
          </Icon>
        </IconStyle>
      </Style>
    </Placemark>
    <Placemark>
      <name>Jakieś zamarźnięte, wielkie wodospady</name>
      <description>&lt;div&gt;Wojtek: Dodaję, bo mi się zdjęcie spodobało.&lt;/div&gt;&lt;div&gt;&lt;br&gt;&amp;nbsp;&lt;/div&gt;&lt;img src="http://i.imgur.com/3KYWK.png"&gt;</description>
      <Point>
        <coordinates>-20.122061,64.327232,0.000000</coordinates>
      </Point>
      <Style>
        <IconStyle>
          <Icon>
            <href>http://maps.gstatic.com/mapfiles/ms2/micons/camera.png</href>
          </Icon>
        </IconStyle>
      </Style>
    </Placemark>
    <Placemark>
      <name>Szlak "GR 20"</name>
      <description>&lt;div dir="ltr"&gt;Wojtek: Podobno ciekawy. Trudny technicznie, ale nie znalazłem "na szybko" ładnych zdjęć. Popularny wśród angoli i w ogóle turystów zagranicznych itp.&lt;/div&gt;</description>
      <Point>
        <coordinates>9.012893,42.039604,0.000000</coordinates>
      </Point>
      <Style>
        <IconStyle>
          <Icon>
            <href>http://maps.gstatic.com/mapfiles/ms2/micons/hiker.png</href>
          </Icon>
        </IconStyle>
      </Style>
    </Placemark>
    <Placemark>
      <name>Chiang Rai</name>
      <description>Wojtek: Stąd chyba wychodziliśmy z Aliną na trekking 2-3-dniowy po okolicznych górskich wioskach. To było tanie (3x tańsze niż podobne oferty na nizinach) i całkiem klimatyczne (wioski które odwiedzaliśmy nie przywykły jeszcze bardzo do widoku turystów). Polecam.</description>
      <Point>
        <coordinates>99.723267,19.873741,0.000000</coordinates>
      </Point>
      <Style>
        <IconStyle>
          <Icon>
            <href>http://maps.gstatic.com/mapfiles/ms2/micons/blue-dot.png</href>
          </Icon>
        </IconStyle>
      </Style>
    </Placemark>
    <Placemark>
      <name>Chiang Mai</name>
      <description>Wojtek: Byliśmy z Aliną tylko przejazdem. To jest większe miasto wypadowe, dużo organizowanych wypraw.&lt;br&gt;</description>
      <Point>
        <coordinates>98.986816,18.791918,0.000000</coordinates>
      </Point>
      <Style>
        <IconStyle>
          <Icon>
            <href>http://maps.gstatic.com/mapfiles/ms2/micons/blue-dot.png</href>
          </Icon>
        </IconStyle>
      </Style>
    </Placemark>
    <Placemark>
      <name>Ko Tao</name>
      <description>Wojtek: Nurkowanie. Nie byłem.&lt;br&gt;</description>
      <Point>
        <coordinates>99.840393,10.095610,0.000000</coordinates>
      </Point>
      <Style>
        <IconStyle>
          <Icon>
            <href>http://maps.gstatic.com/mapfiles/ms2/micons/water.png</href>
          </Icon>
        </IconStyle>
      </Style>
    </Placemark>
    <Placemark>
      <name>Kanchanaburi</name>
      <description>Stąd jedzie autobus do Sangkla Buri. Podobno ładna trasa.&lt;br&gt;</description>
      <Point>
        <coordinates>99.012894,14.670119,0.000000</coordinates>
      </Point>
      <Style>
        <IconStyle>
          <Icon>
            <href>http://maps.gstatic.com/mapfiles/ms2/micons/blue-dot.png</href>
          </Icon>
        </IconStyle>
      </Style>
    </Placemark>
    <Placemark>
      <name>Lop Buri</name>
      <description>Wojtek: Małpie miasto. Jak ktoś chce zdjęcia z małpami biegającymi wszędzie po ulicach itp., to najłatwiej tu. Poza tym miasto nie jest ciekawe.&lt;br&gt;</description>
      <Point>
        <coordinates>100.890312,15.049957,0.000000</coordinates>
      </Point>
      <Style>
        <IconStyle>
          <Icon>
            <href>http://maps.gstatic.com/mapfiles/ms2/micons/flag.png</href>
          </Icon>
        </IconStyle>
      </Style>
    </Placemark>
    <Placemark>
      <name>Sukhothai</name>
      <description>Wojtek: dużo starych ruin, fajne, ale nie porównuje się z ruinami w Kambodży... Tak czy siak, tanie noclegi, dobre żarcie, miło po prostu.&lt;div&gt;&lt;br&gt;&lt;div&gt;&lt;img src="http://www.thailandnorthern.com/sukhothai/Sukhothai%20remains%20of%20a%20temple%20with%20Buddha%20sculpture%20in%20the%20Historical%20Park%20northern%20Thailand.jpg"&gt;&lt;/div&gt;&lt;/div&gt;</description>
      <Point>
        <coordinates>99.723267,17.243410,0.000000</coordinates>
      </Point>
      <Style>
        <IconStyle>
          <Icon>
            <href>http://maps.gstatic.com/mapfiles/ms2/micons/flag.png</href>
          </Icon>
        </IconStyle>
      </Style>
    </Placemark>
    <Placemark>
      <name>Khao Yai National Park</name>
      <description>&lt;div dir="ltr"&gt;Wojtek: Tu trzeba wydać kasę na wycieczkę, żeby coś zobaczyć. Nie zrobiło na mnie takiego wrażenia jak Khao Sok, ale może to dlatego, że nie wydałem odpowiednio dużo kasy :-/&lt;/div&gt;</description>
      <Point>
        <coordinates>101.381950,14.312258,0.000000</coordinates>
      </Point>
      <Style>
        <IconStyle>
          <Icon>
            <href>http://maps.gstatic.com/mapfiles/ms2/micons/flag.png</href>
          </Icon>
        </IconStyle>
      </Style>
    </Placemark>
    <Placemark>
      <name>Mae Hong Son</name>
      <description>Wojtek: Nie byłem, ale tu są te znane panie z niby długimi szyjami&amp;nbsp;&lt;a href="http://diigo.com/0n7s7" target="_blank"&gt;http://diigo.com/0n7s7&lt;/a&gt;&amp;nbsp;- takich plemion jest więcej za granicą (Birma) z tego co wiem, a ich szyje wcale nie są aż tak długie, ale wygląda to nieźle.</description>
      <Point>
        <coordinates>97.872162,18.737032,0.000000</coordinates>
      </Point>
      <Style>
        <IconStyle>
          <Icon>
            <href>http://maps.gstatic.com/mapfiles/ms2/micons/blue-dot.png</href>
          </Icon>
        </IconStyle>
      </Style>
    </Placemark>
    <Placemark>
      <name>Angkor Wat</name>
      <description>&lt;div dir="ltr"&gt;Wojtek: No to wiadomo, koniecznie zobaczyć w tych regionach.&amp;nbsp;&lt;a href="http://en.wikipedia.org/wiki/Angkor_Wat" target="_blank"&gt;http://en.wikipedia.org/wiki/Angkor_Wat&lt;/a&gt;&lt;/div&gt;</description>
      <Point>
        <coordinates>103.866142,13.412643,0.000000</coordinates>
      </Point>
      <Style>
        <IconStyle>
          <Icon>
            <href>http://maps.gstatic.com/mapfiles/ms2/micons/camera.png</href>
          </Icon>
        </IconStyle>
      </Style>
    </Placemark>
    <Placemark>
      <name>Kanchanaburi</name>
      <description>tygrysy&amp;nbsp;&lt;a href="http://en.wikipedia.org/wiki/Tiger_Temple" target="_blank"&gt;http://en.wikipedia.org/wiki/Tiger_Temple&lt;/a&gt;</description>
      <Point>
        <coordinates>99.012894,14.670119,0.000000</coordinates>
      </Point>
      <Style>
        <IconStyle>
          <Icon>
            <href>http://maps.gstatic.com/mapfiles/ms2/micons/flag.png</href>
          </Icon>
        </IconStyle>
      </Style>
    </Placemark>
    <Placemark>
      <name>Khao Sok</name>
      <description>&lt;div dir="ltr"&gt;Wojtek: Klimatyczne miejsce. Domy na palach, tanio, można się walnąć i nic nie robić. Jest jakaś taka pseudodżungla, jak się wie jak iść to można bez przewodnika (można znaleźć w necie ślady GPS). Dużo tras nie ma.&lt;/div&gt;</description>
      <Point>
        <coordinates>98.525169,8.912586,0.000000</coordinates>
      </Point>
      <Style>
        <IconStyle>
          <Icon>
            <href>http://maps.gstatic.com/mapfiles/ms2/micons/rangerstation.png</href>
          </Icon>
        </IconStyle>
      </Style>
    </Placemark>
    <Placemark>
      <name>Pai</name>
      <description>Wojtek: Inne znane miejsce, ale nie byliśmy... Zaznaczam tylko dlatego, że długo o tym myśleliśmy i wolę zostawić "for reference".&lt;br&gt;</description>
      <Point>
        <coordinates>98.436668,19.358889,0.000000</coordinates>
      </Point>
      <Style>
        <IconStyle>
          <Icon>
            <href>http://maps.gstatic.com/mapfiles/ms2/micons/blue-dot.png</href>
          </Icon>
        </IconStyle>
      </Style>
    </Placemark>
    <Placemark>
      <name>Banlung</name>
      <description>Wojtek: Ktoś mi polecał to miejsce, ale nie byłem. Nie pamiętam też dokładnie dlaczego mi polecał.&lt;br&gt;</description>
      <Point>
        <coordinates>106.988991,13.736956,0.000000</coordinates>
      </Point>
      <Style>
        <IconStyle>
          <Icon>
            <href>http://maps.gstatic.com/mapfiles/ms2/micons/blue-dot.png</href>
          </Icon>
        </IconStyle>
      </Style>
    </Placemark>
    <Placemark>
      <name>Jiuzhaigou Valley</name>
      <description>Wojtek: To jedno z miejsc, które odwiedziłem w ciągu mojego krótkiego pobytu w Chinach. Niebieskie jeziora, móstwo ludzi, dość drogo, ale nie było źle (nawet mimo do dupy pogody). Bardzo podobały mi się okolice, ze względu na klimatyczne małe tybetańskie wioski. Można wypożyczyć rower i pojeździć po nich. (Mimo wszystko, ogólnie Chiny nie spodobały mi się.)&lt;br&gt;</description>
      <Point>
        <coordinates>103.916664,33.216667,0.000000</coordinates>
      </Point>
      <Style>
        <IconStyle>
          <Icon>
            <href>http://maps.gstatic.com/mapfiles/ms2/micons/blue-dot.png</href>
          </Icon>
        </IconStyle>
      </Style>
    </Placemark>
    <Placemark>
      <name>Skalisty plaże + wspinaczka</name>
      <description>Wojtek: Te okolice są znane przede wszystkim z plaż. Kupa zagranicznych turystów. Jest sporo miejsc z ładnymi widokami, wystającymi skałami itp. Z tych co widziałem, najbardziej zapamiętałem to tutaj - można się tam dostać tylko łodzią, ale tanio.&amp;nbsp;</description>
      <Point>
        <coordinates>98.839188,8.010956,0.000000</coordinates>
      </Point>
      <Style>
        <IconStyle>
          <Icon>
            <href>http://maps.gstatic.com/mapfiles/ms2/micons/sunny.png</href>
          </Icon>
        </IconStyle>
      </Style>
    </Placemark>
    <Placemark>
      <name>Domki na wodzie</name>
      <description>&lt;div dir="ltr"&gt;Wojtek: Tu jest organizowanych sporo wycieczek z serii "spanie w domkach na wodzie". Fajne są całkiem,.tylko nie przepłacajcie. Im bliżej tym taniej (w Khao Sok chyba ceny są już w miarę ok).&lt;/div&gt;</description>
      <Point>
        <coordinates>98.651047,9.013268,0.000000</coordinates>
      </Point>
      <Style>
        <IconStyle>
          <Icon>
            <href>http://maps.gstatic.com/mapfiles/ms2/micons/homegardenbusiness.png</href>
          </Icon>
        </IconStyle>
      </Style>
    </Placemark>
    <Placemark>
      <name>Ko Samui</name>
      <description>Wojtek: Te wyspy są znane w okolicy, ale na mnie nie zrobiły żadnego wrażenia. Jak ktoś lubi imprezować na plaży, to być może coś tu znajdzie.</description>
      <Point>
        <coordinates>99.992065,9.486990,0.000000</coordinates>
      </Point>
      <Style>
        <IconStyle>
          <Icon>
            <href>http://maps.gstatic.com/mapfiles/ms2/micons/bar.png</href>
          </Icon>
        </IconStyle>
      </Style>
    </Placemark>
    <Placemark>
      <name>Lotnisko</name>
      <description>&lt;div dir="ltr"&gt;Wojtek: Jakiś kilometr od lotniska mieliśmy pierwszy nocleg z namiotem i ogniskiem w krzakach. Spokojnie można było spać.&lt;/div&gt;</description>
      <Point>
        <coordinates>5.218678,60.293701,0.000000</coordinates>
      </Point>
      <Style>
        <IconStyle>
          <Icon>
            <href>http://maps.gstatic.com/intl/pl_pl/mapfiles/ms/micons/plane.png</href>
          </Icon>
        </IconStyle>
      </Style>
    </Placemark>
    <Placemark>
      <name>Bergen</name>
      <description>&lt;div dir="ltr"&gt;Wojtek: W Bergen byliśmy łącznie 3 razy: po pierwszym noclegu rano (przed odjazdem do Oddy), podczas przesiadki Odda-Bergen-Trengereid, oraz przed odlotem (po powrocie z Vaksdala). W samym Bergen można sobie zobaczyć "domki unesco", poza tym nic tu chyba nie ma.&lt;/div&gt;</description>
      <Point>
        <coordinates>5.344849,60.392147,0.000000</coordinates>
      </Point>
      <Style>
        <IconStyle>
          <Icon>
            <href>http://maps.gstatic.com/intl/pl_pl/mapfiles/ms/micons/blue-dot.png</href>
          </Icon>
        </IconStyle>
      </Style>
    </Placemark>
    <Placemark>
      <name>Trolltunga</name>
      <description>&lt;div dir="ltr"&gt;Wojtek: W tych okolicach kręciliśmy się 3-4 dni. Trolltunga była naszym głónym celem. Dotarcie i powrót zajęły 3-4 dni (dość małym, wypoczynkowym tempem, dodatkowo zmniejszonym warunkami śniegowymi wyżej).&lt;/div&gt;</description>
      <Point>
        <coordinates>6.750069,60.127316,0.000000</coordinates>
      </Point>
      <Style>
        <IconStyle>
          <Icon>
            <href>http://maps.gstatic.com/mapfiles/ms2/micons/camera.png</href>
          </Icon>
        </IconStyle>
      </Style>
    </Placemark>
    <Placemark>
      <name>Trengereid</name>
      <description>&lt;div dir="ltr"&gt;Wojtek: Tu trafiliśmy po powrocie z okolic Trolltungi. Stąd, górami szliśmy do Vaksdala, wolnym tempem, 2 dni.&lt;/div&gt;</description>
      <Point>
        <coordinates>5.635986,60.430122,0.000000</coordinates>
      </Point>
      <Style>
        <IconStyle>
          <Icon>
            <href>http://maps.gstatic.com/intl/pl_pl/mapfiles/ms/micons/blue-dot.png</href>
          </Icon>
        </IconStyle>
      </Style>
    </Placemark>
    <Placemark>
      <name>Vaksdal</name>
      <description>&lt;div dir="ltr"&gt;Wojtek: Tu skończyliśmy nasze chodzenie i wróciliśmy do Bergen na samolot. Nad tą miejscowością nocowaliśmy w fajnym miejscu w omszałym lesie :)&lt;/div&gt;</description>
      <Point>
        <coordinates>5.738640,60.474819,0.000000</coordinates>
      </Point>
      <Style>
        <IconStyle>
          <Icon>
            <href>http://maps.gstatic.com/intl/pl_pl/mapfiles/ms/micons/blue-dot.png</href>
          </Icon>
        </IconStyle>
      </Style>
    </Placemark>
    <Placemark>
      <name>Odda</name>
      <description>&lt;div dir="ltr"&gt;Wojtek: Tutaj trafiliśmy drugiego dnia i od razu ruszyliśmy w kierunku Trolltungi.&lt;/div&gt;</description>
      <Point>
        <coordinates>6.546478,60.066895,0.000000</coordinates>
      </Point>
      <Style>
        <IconStyle>
          <Icon>
            <href>http://maps.gstatic.com/intl/pl_pl/mapfiles/ms/micons/blue-dot.png</href>
          </Icon>
        </IconStyle>
      </Style>
    </Placemark>
    <Placemark>
      <name>Tyssedal</name>
      <description>&lt;div dir="ltr"&gt;Wojtek: Tutaj przechodziliśmy. Można też tu dojechać i stąd iść. Można też pewnie dojechać pod samo jezioro (w sezonie szczególnie), ale wtedy straci się piękną trasę zza mostka.&lt;/div&gt;</description>
      <Point>
        <coordinates>6.558838,60.115173,0.000000</coordinates>
      </Point>
      <Style>
        <IconStyle>
          <Icon>
            <href>http://maps.gstatic.com/intl/pl_pl/mapfiles/ms/micons/blue-dot.png</href>
          </Icon>
        </IconStyle>
      </Style>
    </Placemark>
    <Placemark>
      <name>Los Glaciares</name>
      <description>&lt;div dir="ltr"&gt;Wojtek: Warto zobaczyć, robi wrażenie. Można wynająć samochód i przyjechać przed otwarciem, wtedy nie płaci się za bilet.&lt;/div&gt;</description>
      <Point>
        <coordinates>-73.500000,-50.000000,0.000000</coordinates>
      </Point>
      <Style>
        <IconStyle>
          <Icon>
            <href>http://maps.gstatic.com/mapfiles/ms2/micons/camera.png</href>
          </Icon>
        </IconStyle>
      </Style>
    </Placemark>
    <Placemark>
      <name>Iguazú National Park</name>
      <description>&lt;div dir="ltr"&gt;Wojtek: Wodospady. Nie byłem tutaj, podobno warte zobaczenia?&lt;/div&gt;</description>
      <Point>
        <coordinates>-54.416668,-25.716667,0.000000</coordinates>
      </Point>
      <Style>
        <IconStyle>
          <Icon>
            <href>http://maps.gstatic.com/mapfiles/ms2/micons/water.png</href>
          </Icon>
        </IconStyle>
      </Style>
    </Placemark>
    <Placemark>
      <name>Machu Picchu</name>
      <description>&lt;div dir="ltr"&gt;Wojtek: Nie byłem, ale pewnie warto oznaczyć ;)&lt;/div&gt;</description>
      <Point>
        <coordinates>-72.545982,-13.163698,0.000000</coordinates>
      </Point>
      <Style>
        <IconStyle>
          <Icon>
            <href>http://maps.gstatic.com/intl/pl_pl/mapfiles/ms/micons/blue-dot.png</href>
          </Icon>
        </IconStyle>
      </Style>
    </Placemark>
    <Placemark>
      <name>Huaraz</name>
      <description>&lt;div dir="ltr"&gt;Wotjek: Miejscowość z górami dookoła. Robią wycieczki po okolicach. Byliśmy tu z Kaśką na święta. Było klimatycznie (zwłaszcza jak chodziliśmy po wioskach), nie widziałem jednak niczego, co jakoś szczególnie warto polecić.&lt;/div&gt;</description>
      <Point>
        <coordinates>-77.465630,-9.423031,0.000000</coordinates>
      </Point>
      <Style>
        <IconStyle>
          <Icon>
            <href>http://maps.gstatic.com/intl/pl_pl/mapfiles/ms/micons/blue-dot.png</href>
          </Icon>
        </IconStyle>
      </Style>
    </Placemark>
    <Placemark>
      <name>Sangay National Park</name>
      <description>&lt;div dir="ltr"&gt;Wojtek: Tu nie byłem, ale sam wulkan widać z daleka i jest fotogeniczny ;)&lt;/div&gt;</description>
      <Point>
        <coordinates>-78.338013,-2.007341,0.000000</coordinates>
      </Point>
      <Style>
        <IconStyle>
          <Icon>
            <href>http://maps.gstatic.com/mapfiles/ms2/micons/volcano.png</href>
          </Icon>
        </IconStyle>
      </Style>
    </Placemark>
    <Placemark>
      <name>Bogota</name>
      <description>&lt;div dir="ltr"&gt;Wojtek: Tu spędziliśmy parę dni, taka aklimatyzacja + nicnierobienie. Warto się spróbować podpiąć pod jakieś wydarzenia kulturalne, poczuć klimat ludzi.&lt;/div&gt;</description>
      <Point>
        <coordinates>-74.091797,4.587376,0.000000</coordinates>
      </Point>
      <Style>
        <IconStyle>
          <Icon>
            <href>http://maps.gstatic.com/mapfiles/ms2/micons/blue-dot.png</href>
          </Icon>
        </IconStyle>
      </Style>
    </Placemark>
    <Placemark>
      <name>Ciudad Perdida</name>
      <description>Wojtek: Parudniowy organizowany trekking "do zaginionego miasta". Samo miasto nic ciekawego, ale trekking bardzo przyjemny. To jest wersja bardzo "light", każdy da radę. Żarcie jedzie za wami na osiołkach. Co prawda niemiłosiernie wkurwiało mnie tempo i fakt, że idę z przewodnikami, ale mimo wszystko miło to wspominam. Mijaliśmy czasem mieszkających w tych okolicach Indian (oni nie lubią turystów, co mi się bardzo podobało). Polecam.&lt;br&gt;</description>
      <Point>
        <coordinates>-73.925194,11.037997,0.000000</coordinates>
      </Point>
      <Style>
        <IconStyle>
          <Icon>
            <href>http://maps.gstatic.com/mapfiles/ms2/micons/hiker.png</href>
          </Icon>
        </IconStyle>
      </Style>
    </Placemark>
    <Placemark>
      <name>Tayrona National Park</name>
      <description>&lt;div dir="ltr"&gt;Wojtek: Bardzo fajne miejsce na poranne zdjęcia. Poza tym, leżenie plackiem cały dzień, ewentualnie spacery po lesie w poszukiwaniu zwierzaków. Polecam.&lt;/div&gt;</description>
      <Point>
        <coordinates>-74.153358,11.290016,0.000000</coordinates>
      </Point>
      <Style>
        <IconStyle>
          <Icon>
            <href>http://maps.gstatic.com/mapfiles/ms2/micons/camera.png</href>
          </Icon>
        </IconStyle>
      </Style>
    </Placemark>
    <Placemark>
      <name>El Cocuy National Park</name>
      <description>&lt;div dir="ltr"&gt;Wojtek: Dość posępne góry, średnio fotogeniczne, lecz z klimatycznymi wioskami na nizinach. Są też schroniska w częściach górskich.&lt;/div&gt;</description>
      <Point>
        <coordinates>-72.306519,6.503628,0.000000</coordinates>
      </Point>
      <Style>
        <IconStyle>
          <Icon>
            <href>http://maps.gstatic.com/mapfiles/ms2/micons/blue-dot.png</href>
          </Icon>
        </IconStyle>
      </Style>
    </Placemark>
    <Placemark>
      <name>Cocuy</name>
      <description/>
      <Point>
        <coordinates>-72.450027,6.398554,0.000000</coordinates>
      </Point>
      <Style>
        <IconStyle>
          <Icon>
            <href>http://maps.gstatic.com/mapfiles/ms2/micons/blue-dot.png</href>
          </Icon>
        </IconStyle>
      </Style>
    </Placemark>
    <Placemark>
      <name>Guican</name>
      <description>&lt;div dir="ltr"&gt;Wojtek: Stąd wychodziliśmy.&lt;/div&gt;</description>
      <Point>
        <coordinates>-72.415009,6.461328,0.000000</coordinates>
      </Point>
      <Style>
        <IconStyle>
          <Icon>
            <href>http://maps.gstatic.com/mapfiles/ms2/micons/blue-dot.png</href>
          </Icon>
        </IconStyle>
      </Style>
    </Placemark>
    <Placemark>
      <name>4.593643, -74.072163</name>
      <description>+4° 35' 37.11", -74° 4' 19.79"&lt;br&gt;</description>
      <Point>
        <coordinates>-74.072166,4.593643,0.000000</coordinates>
      </Point>
      <Style>
        <IconStyle>
          <Icon>
            <href/>
          </Icon>
        </IconStyle>
      </Style>
    </Placemark>
    <Placemark>
      <name>Torres Del Paine</name>
      <description>&lt;div dir="ltr"&gt;Wojtek: Być może najpiękniejsze miejsce w Ameryce Południowej. Koniecznie do zobaczenia, gdy jest się w tych regionach. Sam bym się kurde przejechał raz jeszcze na foty.&lt;/div&gt;</description>
      <Point>
        <coordinates>-73.212891,-51.020664,0.000000</coordinates>
      </Point>
      <Style>
        <IconStyle>
          <Icon>
            <href>http://maps.gstatic.com/mapfiles/ms2/micons/camera.png</href>
          </Icon>
        </IconStyle>
      </Style>
    </Placemark>
    <Placemark>
      <name>Tungurahua</name>
      <description>&lt;div dir="ltr"&gt;Wojtek: A ten wulkan jest czasem aktywny. My trafiliśmy na erupcję i było czadowo :)&lt;/div&gt;</description>
      <Point>
        <coordinates>-78.445129,-1.474752,0.000000</coordinates>
      </Point>
      <Style>
        <IconStyle>
          <Icon>
            <href>http://maps.gstatic.com/mapfiles/ms2/micons/volcano.png</href>
          </Icon>
        </IconStyle>
      </Style>
    </Placemark>
    <Placemark>
      <name>Na wschód od Puyo</name>
      <description>&lt;div dir="ltr"&gt;Wojtek: Tutaj organizowane są wyprawy do dżungli. Co prawda komercha trochę, ale w małych grupach, bardzo przyjemne, polecam :) Można kupić z Banos.&lt;/div&gt;</description>
      <Point>
        <coordinates>-77.997437,-1.488480,0.000000</coordinates>
      </Point>
      <Style>
        <IconStyle>
          <Icon>
            <href>http://maps.gstatic.com/mapfiles/ms2/micons/blue-dot.png</href>
          </Icon>
        </IconStyle>
      </Style>
    </Placemark>
    <Placemark>
      <name>Równik ;)</name>
      <description>&lt;div dir="ltr"&gt;Wojtek: Tu z Kaśką zrobiliśmy trekking "wzdłuż równika" ;) No ale bądźmy szczerzy - nie było tu nic szczególnie pięknego :P Przedzieranie się przez krzaki, szukanie miejsc na nocleg, no i RÓWNIK...&lt;/div&gt;</description>
      <Point>
        <coordinates>-77.987823,-0.153808,0.000000</coordinates>
      </Point>
      <Style>
        <IconStyle>
          <Icon>
            <href>http://maps.gstatic.com/mapfiles/ms2/micons/blue-dot.png</href>
          </Icon>
        </IconStyle>
      </Style>
    </Placemark>
    <Placemark>
      <name>Kazbek</name>
      <description>&lt;div dir="ltr"&gt;Wojtek: Kiedyś chętnie bym zdobył.&lt;/div&gt;</description>
      <Point>
        <coordinates>44.516602,42.697578,0.000000</coordinates>
      </Point>
      <Style>
        <IconStyle>
          <Icon>
            <href>http://maps.gstatic.com/mapfiles/ms2/micons/flag.png</href>
          </Icon>
        </IconStyle>
      </Style>
    </Placemark>
    <Placemark>
      <name>T'bilisi</name>
      <description/>
      <Point>
        <coordinates>44.792976,41.710598,0.000000</coordinates>
      </Point>
      <Style>
        <IconStyle>
          <Icon>
            <href>http://maps.google.com/mapfiles/kml/paddle/red-circle_maps.png</href>
          </Icon>
        </IconStyle>
      </Style>
    </Placemark>
    <Placemark>
      <name>Lotnisko</name>
      <description/>
      <Point>
        <coordinates>44.958458,41.673458,0.000000</coordinates>
      </Point>
      <Style>
        <IconStyle>
          <Icon>
            <href>http://maps.gstatic.com/mapfiles/ms2/micons/plane.png</href>
          </Icon>
        </IconStyle>
      </Style>
    </Placemark>
    <Placemark>
      <name>Gori</name>
      <description>&lt;div dir="ltr"&gt;Wojtek: Muzeum Stalina jest ciekawe. Poza tym, nic tu chyba nie ma.&lt;/div&gt;</description>
      <Point>
        <coordinates>44.109592,41.981316,0.000000</coordinates>
      </Point>
      <Style>
        <IconStyle>
          <Icon>
            <href>http://maps.google.com/mapfiles/kml/paddle/blu-circle_maps.png</href>
          </Icon>
        </IconStyle>
      </Style>
    </Placemark>
    <Placemark>
      <name>Borżhomi</name>
      <description>&lt;div dir="ltr"&gt;Wojtek: To taki las i góry w stylu Beskid Niski, ale bez cerkwi i bez tak fajnego klimatu. Być może dobre na krótki odpoczynek, ale raczej na pewno nie na zdjęcia (a przynajmniej ja nie widziałem dobrych zdjęć z tego regionu).&lt;/div&gt;</description>
      <Point>
        <coordinates>43.378700,41.843300,0.000000</coordinates>
      </Point>
      <Style>
        <IconStyle>
          <Icon>
            <href>http://maps.google.com/mapfiles/kml/paddle/blu-circle_maps.png</href>
          </Icon>
        </IconStyle>
      </Style>
    </Placemark>
    <Placemark>
      <name>Vardzia</name>
      <description>+41° 22' 31.00", +43° 15' 27.00"&lt;br&gt;</description>
      <Point>
        <coordinates>43.257500,41.375278,0.000000</coordinates>
      </Point>
      <Style>
        <IconStyle>
          <Icon>
            <href>http://maps.google.com/mapfiles/kml/paddle/blu-circle_maps.png</href>
          </Icon>
        </IconStyle>
      </Style>
    </Placemark>
    <Placemark>
      <name>Kazbegi</name>
      <description>&lt;div dir="ltr"&gt;Wojtek: Teraz nazwa miejscowości została zmieniona, ale nadal jest znane pod tą nazwą. Miejscowość pod Kazbekiem.&lt;/div&gt;</description>
      <Point>
        <coordinates>44.642944,42.656940,0.000000</coordinates>
      </Point>
      <Style>
        <IconStyle>
          <Icon>
            <href>http://maps.google.com/mapfiles/kml/paddle/blu-circle_maps.png</href>
          </Icon>
        </IconStyle>
      </Style>
    </Placemark>
    <Placemark>
      <name>Ushguli</name>
      <description>&lt;div dir="ltr"&gt;Wojtek: Turystyczny cel z knajpą, pamiątkami i noclegami. Wioska wysoko w górach. Bardzo ładnie.&lt;/div&gt;</description>
      <Point>
        <coordinates>43.015671,42.917797,0.000000</coordinates>
      </Point>
      <Style>
        <IconStyle>
          <Icon>
            <href>http://maps.gstatic.com/intl/pl_pl/mapfiles/ms/micons/blue-dot.png</href>
          </Icon>
        </IconStyle>
      </Style>
    </Placemark>
    <Placemark>
      <name>Mestia</name>
      <description>&lt;div dir="ltr"&gt;Wojtek: Ostatnio bardzo turystyczna, pod wieżami wielkie remonty i powstające duże kompleksy. Punkt wypadowy w góry.&lt;/div&gt;</description>
      <Point>
        <coordinates>42.729721,43.045555,0.000000</coordinates>
      </Point>
      <Style>
        <IconStyle>
          <Icon>
            <href>http://maps.gstatic.com/intl/pl_pl/mapfiles/ms/micons/blue-dot.png</href>
          </Icon>
        </IconStyle>
      </Style>
    </Placemark>
    <Placemark>
      <name>Zugdidi</name>
      <description>&lt;div dir="ltr"&gt;Wojtek: Tutaj przesiadamy się w drodze do Mestii. Inne związane relacje: &lt;a href="http://dokturjazon.blox.pl/2010/01/Pierwszy-rytual-przejscia.html" target="_blank"&gt;http://dokturjazon.blox.pl/2010/01/Pierwszy-rytual-przejscia.html&lt;/a&gt;&lt;/div&gt;</description>
      <Point>
        <coordinates>41.862667,42.501614,0.000000</coordinates>
      </Point>
      <Style>
        <IconStyle>
          <Icon>
            <href>http://maps.gstatic.com/intl/pl_pl/mapfiles/ms/micons/blue-dot.png</href>
          </Icon>
        </IconStyle>
      </Style>
    </Placemark>
    <Placemark>
      <name>Gyumri</name>
      <description>&lt;div dir="ltr"&gt;Wojtek: Tu dojechaliśmy z Erewania i przesiedliśmy się do Artik.&lt;/div&gt;</description>
      <Point>
        <coordinates>43.840942,40.794060,0.000000</coordinates>
      </Point>
      <Style>
        <IconStyle>
          <Icon>
            <href>http://maps.gstatic.com/intl/pl_pl/mapfiles/ms/micons/blue-dot.png</href>
          </Icon>
        </IconStyle>
      </Style>
    </Placemark>
    <Placemark>
      <name>Ani</name>
      <description>Wojtek: Nie byliśmy. Na granicy tu są jakieś ruiny, niestety podobno można w nie wejść tylko od strony tureckiej. Nie wiem czy to ciekawe.</description>
      <Point>
        <coordinates>43.572777,40.507500,0.000000</coordinates>
      </Point>
      <Style>
        <IconStyle>
          <Icon>
            <href/>
          </Icon>
        </IconStyle>
      </Style>
    </Placemark>
    <Placemark>
      <name>Vardzia</name>
      <description>&lt;div dir="ltr"&gt;Wojtek: Skalne miasta. Trudny dojazd. Nie było mnie tam, nie wiem czy warto.&lt;/div&gt;</description>
      <Point>
        <coordinates>43.257500,41.375278,0.000000</coordinates>
      </Point>
      <Style>
        <IconStyle>
          <Icon>
            <href/>
          </Icon>
        </IconStyle>
      </Style>
    </Placemark>
    <Placemark>
      <name>Aragats</name>
      <description>Wojtek: Fajny trekking od zachodu. Mieliśmy rosyjskie mapy sztabówki. Wodę ciężko znaleźć, ale jest. Na ognisko nie ma szans. Widoki całkiem nieziemskie, choć monotonne.&lt;br&gt;</description>
      <Point>
        <coordinates>44.200974,40.507706,0.000000</coordinates>
      </Point>
      <Style>
        <IconStyle>
          <Icon>
            <href>http://maps.gstatic.com/mapfiles/ms2/micons/camera.png</href>
          </Icon>
        </IconStyle>
      </Style>
    </Placemark>
    <Placemark>
      <name>Makcheta</name>
      <description>&lt;div dir="ltr"&gt;Wojtek: Nie pamiętam, czy byłem. Chyba nic ciekawego, choć to bardzo popularne wśród turystów miejsce.&lt;/div&gt;</description>
      <Point>
        <coordinates>44.716667,41.849998,0.000000</coordinates>
      </Point>
      <Style>
        <IconStyle>
          <Icon>
            <href/>
          </Icon>
        </IconStyle>
      </Style>
    </Placemark>
    <Placemark>
      <name>Artik</name>
      <description>Wojtek: Stąd piechotą ruszyliśmy na szczyt.&lt;br&gt;</description>
      <Point>
        <coordinates>43.975834,40.617222,0.000000</coordinates>
      </Point>
      <Style>
        <IconStyle>
          <Icon>
            <href>http://maps.gstatic.com/intl/pl_pl/mapfiles/ms/micons/blue-dot.png</href>
          </Icon>
        </IconStyle>
      </Style>
    </Placemark>
    <Placemark>
      <name>Trekking do Ushguli</name>
      <description>&lt;div dir="ltr"&gt;Wojtek: Zajął nam parę dni. Super góry, super zdjęcia, bardzo polecam. Niestety ciężko z miłymi noclegami pod namiotem - da się, ale w wiekszości miejsc albo nie ma wody, albo lasu, albo mega wieje.&lt;/div&gt;</description>
      <Point>
        <coordinates>42.886505,43.015694,0.000000</coordinates>
      </Point>
      <Style>
        <IconStyle>
          <Icon>
            <href>http://maps.gstatic.com/mapfiles/ms2/micons/hiker.png</href>
          </Icon>
        </IconStyle>
      </Style>
    </Placemark>
    <Placemark>
      <name>Pasanauri</name>
      <description>Wojtek: Stąd szliśmy na Kazbek parę dni górami, podczas mojej pierwszej wyprawy do Gruzji. Mijaliśmy sporo zagród pasterskich itp. Przyjemne. Jeśli jedziecie busem, to warto kierowcę namówić, żeby Was podwiózł wyżej na północny wschód, zamiast iść drogą.</description>
      <Point>
        <coordinates>44.706802,42.351185,0.000000</coordinates>
      </Point>
      <Style>
        <IconStyle>
          <Icon>
            <href>http://maps.gstatic.com/mapfiles/ms2/micons/blue-dot.png</href>
          </Icon>
        </IconStyle>
      </Style>
    </Placemark>
    <Placemark>
      <name>Z Pasanauri do Kazbegi. Jakoś tak szliśmy.</name>
      <description/>
      <LineString>
        <tessellate>1</tessellate>
        <coordinates>
        44.724552,42.362095,0.000000
        44.751331,42.391010,0.000000
        44.757511,42.419907,0.000000
        44.728672,42.438660,0.000000
        44.702579,42.468552,0.000000
      </coordinates>
      </LineString>
      <Style>
        <LineStyle>
          <color>73FF0000</color>
          <width>5</width>
        </LineStyle>
      </Style>
    </Placemark>
    <Placemark>
      <name>Kackar</name>
      <description>Wojtek: Tutaj trochę chodziliśmy, ale nie zapamiętałem tych gór jakoś szczególnie. Chyba nie były zbyt ciekawe. Więcej info&amp;nbsp;http://rygielski.net/zdjecia/2007-08-01/</description>
      <Point>
        <coordinates>41.212463,40.834595,0.000000</coordinates>
      </Point>
      <Style>
        <IconStyle>
          <Icon>
            <href>http://maps.gstatic.com/mapfiles/ms2/micons/hiker.png</href>
          </Icon>
        </IconStyle>
      </Style>
    </Placemark>
    <Placemark>
      <name>Okolice Kapadocji</name>
      <description>&lt;div dir="ltr"&gt;Wojtek: Tutaj spędziliśmy trochę czasu. Ogólnie polecam. Miałem tutaj zaznaczonych duuużo waypointów, ale wszystkie dotyczyły miejscowości, które są na mapie, więc usunąłem. Więcej informacji o tym co tu widziałem na &lt;a href="http://rygielski.net/zdjecia/2007-08-01/" target="_blank"&gt;http://rygielski.net/zdjecia/2007-08-01/&lt;/a&gt;&lt;/div&gt;</description>
      <Point>
        <coordinates>34.878845,38.636181,0.000000</coordinates>
      </Point>
      <Style>
        <IconStyle>
          <Icon>
            <href>http://maps.gstatic.com/mapfiles/ms2/micons/camera.png</href>
          </Icon>
        </IconStyle>
      </Style>
    </Placemark>
    <Placemark>
      <name>Aladaglar (antyatlas)</name>
      <description>&lt;div dir="ltr"&gt;Wojtek: Bardzo przyjemny (i fotogeniczny) trekking tu zrobiliśmy, polecam. &lt;a href="http://rygielski.net/zdjecia/2007-08-01/" target="_blank"&gt;http://rygielski.net/zdjecia/2007-08-01/&lt;/a&gt;&lt;/div&gt;</description>
      <Point>
        <coordinates>35.230408,37.846664,0.000000</coordinates>
      </Point>
      <Style>
        <IconStyle>
          <Icon>
            <href>http://maps.gstatic.com/mapfiles/ms2/micons/hiker.png</href>
          </Icon>
        </IconStyle>
      </Style>
    </Placemark>
    <Placemark>
      <name>Jachtem w Chorwacji</name>
      <description>&lt;div dir="ltr"&gt;Wojtek: Zaznaczam naszą trasę. Część po lądzie była najczęśniej motorami.&lt;/div&gt;</description>
      <LineString>
        <tessellate>1</tessellate>
        <coordinates>
        16.366482,43.550117,0.000000
        16.386395,43.502071,0.000000
        16.429653,43.497589,0.000000
        16.437550,43.505310,0.000000
        16.392860,43.291851,0.000000
        16.583748,43.185303,0.000000
        16.586494,43.174789,0.000000
        16.542549,43.179295,0.000000
        16.427879,43.192814,0.000000
        16.434059,43.175789,0.000000
        16.506157,43.161766,0.000000
        16.575508,43.151249,0.000000
        16.593361,43.173786,0.000000
        16.589928,43.187305,0.000000
        16.427879,43.226845,0.000000
        16.326942,43.194313,0.000000
        16.699791,43.092110,0.000000
        16.708088,43.091030,0.000000
        16.706743,43.086731,0.000000
        16.725082,43.102287,0.000000
        17.036819,42.985863,0.000000
        17.143936,42.961750,0.000000
        17.135696,42.950691,0.000000
        17.183762,42.916508,0.000000
        17.123337,42.944660,0.000000
        17.156296,42.964764,0.000000
        16.922836,43.019009,0.000000
        16.708603,43.100281,0.000000
        16.674271,43.106297,0.000000
        16.203232,43.073200,0.000000
        16.216965,43.085239,0.000000
        16.278763,43.086243,0.000000
        16.274643,43.043098,0.000000
        16.256790,43.026035,0.000000
        16.289749,43.026035,0.000000
        16.285629,43.161415,0.000000
        16.308975,43.211483,0.000000
        16.413345,43.178444,0.000000
        16.369400,43.164421,0.000000
        16.306229,43.191460,0.000000
        16.340561,43.259506,0.000000
        16.414719,43.347450,0.000000
        16.453171,43.504040,0.000000
        16.374893,43.501053,0.000000
        16.405106,43.543869,0.000000
        16.366482,43.550117,0.000000
      </coordinates>
      </LineString>
      <Style>
        <LineStyle>
          <color>73FF0000</color>
          <width>5</width>
        </LineStyle>
      </Style>
    </Placemark>
    <Placemark>
      <name>Stary Grad</name>
      <description>&lt;div dir="ltr"&gt;Wojtek: Bardzo mi się podobało w nocy. Niesamowita cisza. Na wyspie nie ma samochodów, ludzie w nocy śpią, turystów mało, są tylko koty.&lt;/div&gt;</description>
      <Point>
        <coordinates>16.578026,43.180897,0.000000</coordinates>
      </Point>
      <Style>
        <IconStyle>
          <Icon>
            <href>http://maps.gstatic.com/mapfiles/ms2/micons/flag.png</href>
          </Icon>
        </IconStyle>
      </Style>
    </Placemark>
    <Placemark>
      <name>Skuterem po wyspie</name>
      <description>&lt;div dir="ltr"&gt;Wojtek: Ze względu na mały ruch i niezwykłe niebo nocą, naprawdę mi się podobało. Skutery dość tanio można wynająć.&lt;/div&gt;</description>
      <Point>
        <coordinates>16.509018,43.173386,0.000000</coordinates>
      </Point>
      <Style>
        <IconStyle>
          <Icon>
            <href>http://maps.gstatic.com/mapfiles/ms2/micons/motorcycling.png</href>
          </Icon>
        </IconStyle>
      </Style>
    </Placemark>
    <Placemark>
      <name>Restauracja</name>
      <description>&lt;div dir="ltr"&gt;Wojtek: Żarcie jak żarcie, ale co za lokalizacja :)&lt;/div&gt;</description>
      <Point>
        <coordinates>16.702652,43.089951,0.000000</coordinates>
      </Point>
      <Style>
        <IconStyle>
          <Icon>
            <href>http://maps.gstatic.com/mapfiles/ms2/micons/restaurant.png</href>
          </Icon>
        </IconStyle>
      </Style>
    </Placemark>
    <Placemark>
      <name>Jezioro Dal</name>
      <description/>
      <Point>
        <coordinates>74.866676,34.104416,0.000000</coordinates>
      </Point>
      <Style>
        <IconStyle>
          <Icon>
            <href>http://maps.gstatic.com/intl/en_ALL/mapfiles/ms/micons/blue-dot.png</href>
          </Icon>
        </IconStyle>
      </Style>
    </Placemark>
    <Placemark>
      <name>Stok Kangri</name>
      <description/>
      <Point>
        <coordinates>77.444000,33.986641,0.000000</coordinates>
      </Point>
      <Style>
        <IconStyle>
          <Icon>
            <href>http://maps.gstatic.com/intl/en_ALL/mapfiles/ms/micons/blue-dot.png</href>
          </Icon>
        </IconStyle>
      </Style>
    </Placemark>
    <Placemark>
      <name>Khardung La</name>
      <description/>
      <Point>
        <coordinates>77.595749,34.289845,0.000000</coordinates>
      </Point>
      <Style>
        <IconStyle>
          <Icon>
            <href>http://maps.gstatic.com/intl/en_ALL/mapfiles/ms/micons/blue-dot.png</href>
          </Icon>
        </IconStyle>
      </Style>
    </Placemark>
    <Placemark>
      <name>Kang Yatze</name>
      <description/>
      <Point>
        <coordinates>77.558151,33.748322,0.000000</coordinates>
      </Point>
      <Style>
        <IconStyle>
          <Icon>
            <href>http://maps.gstatic.com/intl/en_ALL/mapfiles/ms/micons/blue-dot.png</href>
          </Icon>
        </IconStyle>
      </Style>
    </Placemark>
    <Placemark>
      <name>Hemis NP?</name>
      <description/>
      <Point>
        <coordinates>77.389069,33.719200,0.000000</coordinates>
      </Point>
      <Style>
        <IconStyle>
          <Icon>
            <href>http://maps.gstatic.com/intl/en_ALL/mapfiles/ms/micons/blue-dot.png</href>
          </Icon>
        </IconStyle>
      </Style>
    </Placemark>
    <Placemark>
      <name>Zanskar</name>
      <description/>
      <Point>
        <coordinates>76.989441,33.561996,0.000000</coordinates>
      </Point>
      <Style>
        <IconStyle>
          <Icon>
            <href>http://maps.gstatic.com/intl/en_ALL/mapfiles/ms/micons/blue-dot.png</href>
          </Icon>
        </IconStyle>
      </Style>
    </Placemark>
    <Placemark>
      <name>Ladhak</name>
      <description>&lt;div dir="ltr"&gt;Wojtek: To jest trasa, którą kiedyś planowałem zrobić. Nie wyszło, ale może jeszcze się uda. W żadnym z tych punktów nie byłem, mam tylko wygooglane informacje na ich temat.&lt;/div&gt;</description>
      <LineString>
        <tessellate>1</tessellate>
        <coordinates>
        77.032471,28.542065,0.000000
        74.802704,34.071545,0.000000
        76.134338,34.526020,0.000000
        77.530060,34.142044,0.000000
        77.554779,34.312363,0.000000
        77.697601,34.443836,0.000000
        77.606964,34.280594,0.000000
        77.571259,34.103390,0.000000
        77.464142,33.971382,0.000000
        77.340546,33.731876,0.000000
        77.563019,33.725025,0.000000
        77.343292,33.699894,0.000000
        76.991730,33.546661,0.000000
        76.864929,33.409893,0.000000
        77.392273,32.811749,0.000000
        77.216492,32.204899,0.000000
      </coordinates>
      </LineString>
      <Style>
        <LineStyle>
          <color>73FF0000</color>
          <width>5</width>
        </LineStyle>
      </Style>
    </Placemark>
    <Placemark>
      <name>Lotnisko Santiago</name>
      <description>&lt;div dir="ltr"&gt;&lt;/div&gt;</description>
      <Point>
        <coordinates>-70.576172,-33.422272,0.000000</coordinates>
      </Point>
      <Style>
        <IconStyle>
          <Icon>
            <href>http://maps.google.com/mapfiles/kml/shapes/airports_maps.png</href>
          </Icon>
        </IconStyle>
      </Style>
    </Placemark>
    <Placemark>
      <name>Aconcagua</name>
      <description>&lt;div align="left"&gt;&lt;br&gt;&amp;nbsp;&lt;/div&gt;&lt;span&gt;&lt;a target="_blank"&gt;&lt;/a&gt;&lt;/span&gt;</description>
      <Point>
        <coordinates>-70.016541,-32.655621,0.000000</coordinates>
      </Point>
      <Style>
        <IconStyle>
          <Icon>
            <href>http://maps.gstatic.com/mapfiles/ms2/micons/flag.png</href>
          </Icon>
        </IconStyle>
      </Style>
    </Placemark>
    <Placemark>
      <name>Mount Fitzroy</name>
      <description>&lt;div dir="ltr"&gt;Wojtek: Tu nie byliśmy, ale miejsce dość znany i dość fotogeniczne. Wspinać się raczej nie ma co planować ;)&lt;/div&gt;</description>
      <Point>
        <coordinates>-73.083298,-49.283298,0.000000</coordinates>
      </Point>
      <Style>
        <IconStyle>
          <Icon>
            <href>http://maps.google.com/mapfiles/kml/pushpin/red-pushpin_maps.png</href>
          </Icon>
        </IconStyle>
      </Style>
    </Placemark>
    <Placemark>
      <name>Ushuaia</name>
      <description/>
      <Point>
        <coordinates>-68.230591,-54.781681,0.000000</coordinates>
      </Point>
      <Style>
        <IconStyle>
          <Icon>
            <href>http://maps.google.com/mapfiles/kml/shapes/airports_maps.png</href>
          </Icon>
        </IconStyle>
      </Style>
    </Placemark>
    <Placemark>
      <name>Pento Natales</name>
      <description>&lt;div dir="ltr"&gt;Wojtek: Punkt wypadowy w Torres del Paine.&lt;/div&gt;</description>
      <Point>
        <coordinates>-72.479553,-51.709671,0.000000</coordinates>
      </Point>
      <Style>
        <IconStyle>
          <Icon>
            <href>http://maps.google.com/mapfiles/kml/shapes/bus_maps.png</href>
          </Icon>
        </IconStyle>
      </Style>
    </Placemark>
    <Placemark>
      <name>Osorno</name>
      <description>&lt;div dir="ltr"&gt;Wojtek: Nie byłem tu. Ale to podobno niezłe miejsce wypadowe, z widokami na jeziora i wulkany... &lt;a href="http://www.summitpost.org/images/medium/86307.jpg" target="_blank"&gt;http://www.summitpost.org/images/medium/86307.jpg&lt;/a&gt;&lt;/div&gt;</description>
      <Point>
        <coordinates>-72.496719,-41.102535,0.000000</coordinates>
      </Point>
      <Style>
        <IconStyle>
          <Icon>
            <href>http://maps.gstatic.com/mapfiles/ms2/micons/blue-dot.png</href>
          </Icon>
        </IconStyle>
      </Style>
    </Placemark>
    <Placemark>
      <name>PN Huerquehue</name>
      <description>&lt;div dir="ltr"&gt;Wojtek: Tu chodziliśmy z Agnieszką parę dni. Fajna roślinność, dość gęsto, szlaki bardzo lajtowe. Nie jest bardzo fotogenicznie, ale i tak polecam, bo klimatycznie. Na północy są gorące źródła, za opłatą można przy nich sobie rozbić namiot i siedzieć w nich całą noc.&lt;/div&gt;</description>
      <Point>
        <coordinates>-71.696777,-39.236507,0.000000</coordinates>
      </Point>
      <Style>
        <IconStyle>
          <Icon>
            <href>http://maps.gstatic.com/mapfiles/ms2/micons/hiker.png</href>
          </Icon>
        </IconStyle>
      </Style>
    </Placemark>
    <Placemark>
      <name>Ojos del Salando</name>
      <description>&lt;div dir="ltr"&gt;Wojtek: Ciężko mi powiedzieć, czy warto. Widoki mogą być ciekawe, ale to jest dość na uboczu. Prawdopodobnie nie porównuje się ze znanymi, podobnymi widokami w pd-zachodniej boliwii&lt;br&gt;&lt;br&gt;&lt;a href="http://www.summitpost.org/images/medium/47527.jpg" target="_blank"&gt;http://www.summitpost.org/images/medium/47527.jpg&lt;/a&gt;&lt;/div&gt;</description>
      <Point>
        <coordinates>-68.494263,-27.034664,0.000000</coordinates>
      </Point>
      <Style>
        <IconStyle>
          <Icon>
            <href>http://maps.gstatic.com/mapfiles/ms2/micons/camera.png</href>
          </Icon>
        </IconStyle>
      </Style>
    </Placemark>
    <Placemark>
      <name>Glaciar Perito Moreno</name>
      <description/>
      <Point>
        <coordinates>-73.050003,-50.483334,0.000000</coordinates>
      </Point>
      <Style>
        <IconStyle>
          <Icon>
            <href>http://maps.google.com/mapfiles/kml/pushpin/grn-pushpin_maps.png</href>
          </Icon>
        </IconStyle>
      </Style>
    </Placemark>
    <Placemark>
      <name>Kordyliera Darwina</name>
      <description>&lt;br&gt;</description>
      <Point>
        <coordinates>-70.664062,-54.521080,0.000000</coordinates>
      </Point>
      <Style>
        <IconStyle>
          <Icon>
            <href>http://maps.google.com/mapfiles/kml/pushpin/red-pushpin_maps.png</href>
          </Icon>
        </IconStyle>
      </Style>
    </Placemark>
    <Placemark>
      <name>Villarrica (aktywny wulkan 2847)</name>
      <description>&lt;div dir="ltr"&gt;Wojtek: Tutaj wchodziliśmy, lecz we mgle i nic nie widzieliśmy. Wulkan jest ładny z daleka, ale chyba wchodzenia na szczyt nie mam za co polecać.&lt;br&gt;&lt;br&gt;&lt;a href="http://www.summitpost.org/images/medium/110424.jpg" target="_blank"&gt;http://www.summitpost.org/images/medium/110424.jpg&lt;/a&gt;&lt;br&gt;&lt;a href="http://www.summitpost.org/images/original/346837.jpg" target="_blank"&gt;http://www.summitpost.org/images/original/346837.jpg&lt;/a&gt;&lt;/div&gt;</description>
      <Point>
        <coordinates>-71.939507,-39.419220,0.000000</coordinates>
      </Point>
      <Style>
        <IconStyle>
          <Icon>
            <href>http://maps.gstatic.com/mapfiles/ms2/micons/flag.png</href>
          </Icon>
        </IconStyle>
      </Style>
    </Placemark>
    <Placemark>
      <name>Plomo (5424)</name>
      <description/>
      <Point>
        <coordinates>-70.216370,-33.237537,0.000000</coordinates>
      </Point>
      <Style>
        <IconStyle>
          <Icon>
            <href>http://maps.gstatic.com/mapfiles/ms2/micons/flag.png</href>
          </Icon>
        </IconStyle>
      </Style>
    </Placemark>
    <Placemark>
      <name>PN Tierra del Fuego</name>
      <description>&lt;div dir="ltr"&gt;Wojtek: Tu nie byliśmy. Stwierdziliśmy, że wolimy zrobić mniej popularną trasę na wschodzie. (Tam nikogo nie spotkaliśmy przez parę dni, poza sezonem byliśmy.)&lt;/div&gt;</description>
      <Point>
        <coordinates>-68.554688,-54.730965,0.000000</coordinates>
      </Point>
      <Style>
        <IconStyle>
          <Icon>
            <href>http://maps.gstatic.com/mapfiles/ms2/micons/blue-dot.png</href>
          </Icon>
        </IconStyle>
      </Style>
    </Placemark>
    <Placemark>
      <name>Chaiten</name>
      <description>&lt;div dir="ltr"&gt;Wojtek: Tu był bardzo aktywny wulkan, którego zdjęcia swego czasu obiegły świat. Chyba jednak to była jednorazowa akcja i nie ma co tam jechać z tego powodu.&lt;/div&gt;</description>
      <Point>
        <coordinates>-72.645721,-42.832672,0.000000</coordinates>
      </Point>
      <Style>
        <IconStyle>
          <Icon>
            <href>http://maps.google.com/mapfiles/kml/pushpin/ylw-pushpin_maps.png</href>
          </Icon>
        </IconStyle>
      </Style>
    </Placemark>
    <Placemark>
      <name>Gejzery</name>
      <description>Wojtek: No co, gejzery fajna rzecz. ;) Chociaż to też nie po drodze i nie wiem czy "czad".&lt;br&gt;</description>
      <Point>
        <coordinates>-68.013054,-22.331388,0.000000</coordinates>
      </Point>
      <Style>
        <IconStyle>
          <Icon>
            <href>http://maps.gstatic.com/mapfiles/ms2/micons/blue-dot.png</href>
          </Icon>
        </IconStyle>
      </Style>
    </Placemark>
    <Placemark>
      <name>Trekking na "ziemi ognistej"</name>
      <description>&lt;div dir="ltr"&gt;Wojtek: Tu chodziliśmy parę dni. Niezwykła roślinność! Trochę wieje i pada, jak zwykle tutaj. Polecam.&lt;/div&gt;</description>
      <Point>
        <coordinates>-68.049316,-54.654770,0.000000</coordinates>
      </Point>
      <Style>
        <IconStyle>
          <Icon>
            <href>http://maps.gstatic.com/mapfiles/ms2/micons/hiker.png</href>
          </Icon>
        </IconStyle>
      </Style>
    </Placemark>
    <Placemark>
      <name>Rio Gallegos</name>
      <description>&lt;div dir="ltr"&gt;Wojtek: Tu przejeżdżaliśmy podczas transportu z Torres del Paine do Lake District na dalekiej północy. Wszystkie autobusy jeżdżą wybrzeżem.&lt;/div&gt;</description>
      <Point>
        <coordinates>-69.213867,-51.645294,0.000000</coordinates>
      </Point>
      <Style>
        <IconStyle>
          <Icon>
            <href>http://maps.google.com/mapfiles/kml/shapes/bus_maps.png</href>
          </Icon>
        </IconStyle>
      </Style>
    </Placemark>
    <Placemark>
      <name>Valparaiso</name>
      <description>&lt;div dir="ltr"&gt;Wojtek: To miejsce jest niby znane, ale zupełnie go nie polecam. Zero klimatu.&lt;/div&gt;</description>
      <Point>
        <coordinates>-71.628113,-33.047810,0.000000</coordinates>
      </Point>
      <Style>
        <IconStyle>
          <Icon>
            <href>http://maps.gstatic.com/mapfiles/ms2/micons/blue-dot.png</href>
          </Icon>
        </IconStyle>
      </Style>
    </Placemark>
    <Placemark>
      <name>Atacama</name>
      <description>&lt;div dir="ltr"&gt;Wojtek: Chciałbym, kiedyś. Foty widziałem całkiem niesamowite. Coprawda, to ciężka rzecz, i dość monotonna, ale bym chciał.&lt;/div&gt;</description>
      <Point>
        <coordinates>-69.532471,-19.228176,0.000000</coordinates>
      </Point>
      <Style>
        <IconStyle>
          <Icon>
            <href>http://maps.gstatic.com/mapfiles/ms2/micons/sunny.png</href>
          </Icon>
        </IconStyle>
      </Style>
    </Placemark>
    <Placemark>
      <name>Mont Blanc</name>
      <description>&lt;div dir="ltr"&gt;Wojtek: Możnaby kiedyś wleźć.&lt;/div&gt;</description>
      <Point>
        <coordinates>6.866455,45.828800,0.000000</coordinates>
      </Point>
      <Style>
        <IconStyle>
          <Icon>
            <href>http://maps.gstatic.com/mapfiles/ms2/micons/flag.png</href>
          </Icon>
        </IconStyle>
      </Style>
    </Placemark>
    <Placemark>
      <name>Parco Nazionale dello Stelvio</name>
      <description>&lt;div dir="ltr"&gt;Wojtek: "Parco Nazionale dello Stelvio - niezwykle malowniczy teren obejmujący obszar całego pasma Ortles. Miejsce uwielbiane przez amatorów wysokogórskich wycieczek, nart i miłośników kozic, koziorożców, jeleni, saren i orłów. Miejscem, gdzie najłatwiej można spotkać któreś z tych zwierząt to najmniejsza z okolicznych dolin - Val Zebrú."&lt;/div&gt;</description>
      <Point>
        <coordinates>10.664251,46.505154,0.000000</coordinates>
      </Point>
      <Style>
        <IconStyle>
          <Icon>
            <href>http://maps.google.com/mapfiles/kml/paddle/blu-circle_maps.png</href>
          </Icon>
        </IconStyle>
      </Style>
    </Placemark>
    <Placemark>
      <name>Gran Paradiso</name>
      <description>&lt;div dir="ltr"&gt;Wojtek: Ładny park narodowy, chętnie bym tu kiedyś zrobił trekking.&lt;/div&gt;</description>
      <Point>
        <coordinates>7.266506,45.518608,0.000000</coordinates>
      </Point>
      <Style>
        <IconStyle>
          <Icon>
            <href>http://maps.gstatic.com/mapfiles/ms2/micons/hiker.png</href>
          </Icon>
        </IconStyle>
      </Style>
    </Placemark>
    <Placemark>
      <name>Toskania</name>
      <description>Wojtek: Niektórzy mówią, że naprawdę warto. Możnaby pogooglać. To chyba nie jest region zbyt trekkingowy, ale być może warto zobaczyć "przy okazji".&lt;br&gt;</description>
      <Point>
        <coordinates>11.330514,43.318661,0.000000</coordinates>
      </Point>
      <Style>
        <IconStyle>
          <Icon>
            <href>http://maps.google.com/mapfiles/kml/paddle/blu-circle_maps.png</href>
          </Icon>
        </IconStyle>
      </Style>
    </Placemark>
    <Placemark>
      <name>Dolomity</name>
      <description>&lt;div dir="ltr"&gt;Wojtek: Chcę tu na via ferraty! (To spory rejon, ikona nie jest dokładna.)&lt;/div&gt;</description>
      <Point>
        <coordinates>11.997070,46.528633,0.000000</coordinates>
      </Point>
      <Style>
        <IconStyle>
          <Icon>
            <href>http://maps.gstatic.com/mapfiles/ms2/micons/hiker.png</href>
          </Icon>
        </IconStyle>
      </Style>
    </Placemark>
    <Placemark>
      <name>Val di Funes - Santa Maddalena</name>
      <description>&lt;div&gt;Wojtek: Widziałem dużo ładnych zdjęć z tego regionu. Jesiennych i wiosennych, no bajecznych ogólnie.&lt;/div&gt;&lt;div&gt;&lt;br&gt;&amp;nbsp;&lt;/div&gt;&lt;img src="http://i.imgur.com/nDRIG.png"&gt;</description>
      <Point>
        <coordinates>11.718507,46.639343,0.000000</coordinates>
      </Point>
      <Style>
        <IconStyle>
          <Icon>
            <href>http://maps.gstatic.com/mapfiles/ms2/micons/camera.png</href>
          </Icon>
        </IconStyle>
      </Style>
    </Placemark>
    <Placemark>
      <name>Bastei Bridge</name>
      <description>&lt;img src="http://i.imgur.com/hMhVR.png" style="width:242px"&gt;</description>
      <Point>
        <coordinates>14.071389,50.962223,0.000000</coordinates>
      </Point>
      <Style>
        <IconStyle>
          <Icon>
            <href>http://maps.gstatic.com/mapfiles/ms2/micons/camera.png</href>
          </Icon>
        </IconStyle>
      </Style>
    </Placemark>
    <Placemark>
      <name>Czeska Szwajcaria</name>
      <description>&lt;div dir="ltr"&gt;Wojtek: Góry to może nie są, ale przyjmnie byłoby zobaczyć, np. po drodze.&lt;/div&gt;</description>
      <Point>
        <coordinates>14.416809,50.883976,0.000000</coordinates>
      </Point>
      <Style>
        <IconStyle>
          <Icon>
            <href>http://maps.gstatic.com/mapfiles/ms2/micons/hiker.png</href>
          </Icon>
        </IconStyle>
      </Style>
    </Placemark>
    <Placemark>
      <name>Wierszyna</name>
      <description>&lt;div dir="ltr"&gt;Wojtek: Wieś, w której mieszkają prawie sami Polacy.&lt;/div&gt;</description>
      <Point>
        <coordinates>104.417778,53.250557,0.000000</coordinates>
      </Point>
      <Style>
        <IconStyle>
          <Icon>
            <href/>
          </Icon>
        </IconStyle>
      </Style>
    </Placemark>
    <Placemark>
      <name>Wioska pod górą Elgon</name>
      <description>&lt;img src="http://i.imgur.com/EozoRUg.png"&gt;</description>
      <Point>
        <coordinates>34.709244,1.318586,0.000000</coordinates>
      </Point>
      <Style>
        <IconStyle>
          <Icon>
            <href>http://maps.gstatic.com/mapfiles/ms2/micons/blue-dot.png</href>
          </Icon>
        </IconStyle>
      </Style>
    </Placemark>
    <Placemark>
      <name>Tre Cime di Lavaredo</name>
      <description>&lt;div&gt;Wojtek: Trasy trekkingowe oraz ferraty M1.5-M2. Podobno tłumy ludzi.&lt;/div&gt;&lt;img src="http://i.imgur.com/VbH7uJZ.png" style="width:242px"&gt;&lt;div&gt;&lt;br&gt;&amp;nbsp;&lt;/div&gt;</description>
      <Point>
        <coordinates>12.305556,46.618610,0.000000</coordinates>
      </Point>
      <Style>
        <IconStyle>
          <Icon>
            <href>https://maps.gstatic.com/mapfiles/ms2/micons/camera.png</href>
          </Icon>
        </IconStyle>
      </Style>
    </Placemark>
    <Placemark>
      <name>Calalzo</name>
      <description>&lt;div dir="ltr"&gt;Wojtek: Tu (lub dalej?) dojeżdża pociąg.&lt;/div&gt;</description>
      <Point>
        <coordinates>12.379532,46.432178,0.000000</coordinates>
      </Point>
      <Style>
        <IconStyle>
          <Icon>
            <href>http://maps.gstatic.com/mapfiles/ms2/micons/rail.png</href>
          </Icon>
        </IconStyle>
      </Style>
    </Placemark>
    <Placemark>
      <name>Konigsjodler</name>
      <description>Wojtek: Ferrata (od Chestera). Współrzędne bardzo przybliżone!</description>
      <Point>
        <coordinates>13.072417,47.421925,0.000000</coordinates>
      </Point>
      <Style>
        <IconStyle>
          <Icon>
            <href>https://maps.gstatic.com/mapfiles/ms2/micons/hiker.png</href>
          </Icon>
        </IconStyle>
      </Style>
    </Placemark>
    <Placemark>
      <name>Zamek Hohenzollernów</name>
      <description>&lt;div&gt;Wojtek: To zdjęcie musiało być zrobione z tego mniej więcej miejsca, gdzie jest zaznaczone.&lt;/div&gt;&lt;div&gt;&lt;br&gt;&amp;nbsp;&lt;/div&gt;&lt;img src="http://i.imgur.com/WrA0Wwx.png" style="width:242px"&gt;&lt;div&gt;&lt;a href="http://tvnmeteo.tvn24.pl/archiwum-2011-11-14,1/to-nie-bajka-tak-czaruje-inwersja,15478,0.html" target="_blank"&gt;http://tvnmeteo.tvn24.pl/archiwum-2011-11-14,1/to-nie-bajka-tak-czaruje-inwersja,15478,0.html&lt;/a&gt;&lt;/div&gt;</description>
      <Point>
        <coordinates>8.979359,48.312794,0.000000</coordinates>
      </Point>
      <Style>
        <IconStyle>
          <Icon>
            <href>http://maps.gstatic.com/mapfiles/ms2/micons/camera.png</href>
          </Icon>
        </IconStyle>
      </Style>
    </Placemark>
    <Placemark>
      <name>Dolina Teleti (Ущелье Телеты)</name>
      <description>&lt;div dir="ltr"&gt;&lt;img src="http://i.imgur.com/skG4ARs.png" style="width:244px"&gt;&lt;br&gt;&lt;br&gt;Gosia Grabowska tu była. https://www.facebook.com/photo.php?fbid=10151810653947874&amp;amp;set=a.10151810653262874.1073741825.564727873&amp;amp;type=3&amp;amp;theater&lt;br&gt;&amp;nbsp;&lt;/div&gt;</description>
      <Point>
        <coordinates>78.376358,42.261047,0.000000</coordinates>
      </Point>
      <Style>
        <IconStyle>
          <Icon>
            <href>https://maps.gstatic.com/mapfiles/ms2/micons/camera.png</href>
          </Icon>
        </IconStyle>
      </Style>
    </Placemark>
    <Placemark>
      <name>Góry Barguzińskie</name>
      <description>&lt;font face="arial" size="2"&gt;&lt;img src="http://i.imgur.com/iYx0Izb.png" style="width:244px"&gt;&lt;/font&gt;&lt;div style="font-family:arial;font-size:10pt"&gt;&lt;br&gt;&amp;nbsp;&lt;/div&gt;&lt;div&gt;&lt;font face="arial" size="2"&gt;http://www.panoramio.com/photo/80396845&lt;/font&gt;&lt;/div&gt;</description>
      <Point>
        <coordinates>109.897614,54.009182,0.000000</coordinates>
      </Point>
      <Style>
        <IconStyle>
          <Icon>
            <href>https://maps.gstatic.com/mapfiles/ms2/micons/camera.png</href>
          </Icon>
        </IconStyle>
      </Style>
    </Placemark>
    <Placemark>
      <name>Kampung Kuantan</name>
      <description>Dobre miejsce na świetliki.</description>
      <Point>
        <coordinates>101.677658,3.468303,0.000000</coordinates>
      </Point>
      <Style>
        <IconStyle>
          <Icon>
            <href/>
          </Icon>
        </IconStyle>
      </Style>
    </Placemark>
    <Placemark>
      <name>Kuala Selangor, Selangor</name>
      <description>&lt;div dir="ltr"&gt;Dobre miejsce na świetliki&lt;/div&gt;</description>
      <Point>
        <coordinates>101.258026,3.334976,0.000000</coordinates>
      </Point>
      <Style>
        <IconStyle>
          <Icon>
            <href>http://maps.gstatic.com/mapfiles/ms2/micons/blue-dot.png</href>
          </Icon>
        </IconStyle>
      </Style>
    </Placemark>
    <Placemark>
      <name>Elkmont</name>
      <description>&lt;font face="arial" size="2"&gt;Dobre miejsce na świetliki&lt;/font&gt;</description>
      <Point>
        <coordinates>-83.580444,35.653702,0.000000</coordinates>
      </Point>
      <Style>
        <IconStyle>
          <Icon>
            <href>http://maps.gstatic.com/mapfiles/ms2/micons/blue-dot.png</href>
          </Icon>
        </IconStyle>
      </Style>
    </Placemark>
  </Document>
</kml>
